STAT 6302 - Project
…
SHOW ME THE CODE!

##Extract coefficients (after fitting on full data)
autism_model <- autism_wf %>%
  fit(autism) %>%
  extract_fit_parsnip() %>%
  tidy()

autism_model

# A tibble: 94 × 5
   term        estimate std.error statistic p.value
   <chr>          <dbl>     <dbl>     <dbl>   <dbl>
 1 (Intercept)  -2.86       1.77     -1.61   0.107 
 2 a1_score      0.642      0.407     1.58   0.115 
 3 a2_score     -0.369      0.315    -1.17   0.242 
 4 a3_score     -0.0571     0.343    -0.167  0.868 
 5 a4_score      0.609      0.357     1.71   0.0879
 6 a5_score      0.120      0.364     0.331  0.741 
 7 a6_score     -0.249      0.404    -0.616  0.538 
 8 a7_score     -0.508      0.308    -1.65   0.0993
 9 a8_score      0.129      0.312     0.412  0.680 
10 a9_score      0.761      0.390     1.95   0.0514
# ℹ 84 more rows
…
SHOW ME THE CODE!

##Extract coefficients (after fitting on full data)
autism_model2 <- autism_wf2 %>%
  fit(autism) %>%
  extract_fit_parsnip() %>%
  tidy()

Warning: glm.fit: fitted probabilities numerically 0 or 1 occurred

SHOW ME THE CODE!

autism_model2

# A tibble: 105 × 5
   term        estimate std.error statistic  p.value
   <chr>          <dbl>     <dbl>     <dbl>    <dbl>
 1 (Intercept)   -2.51      1.64     -1.53  0.126   
 2 a1_score       0.816     0.259     3.15  0.00161 
 3 a2_score      -0.341     0.224    -1.52  0.128   
 4 a3_score       0.483     0.226     2.14  0.0321  
 5 a4_score       0.779     0.230     3.39  0.000706
 6 a5_score       0.294     0.235     1.25  0.211   
 7 a6_score       0.136     0.262     0.517 0.605   
 8 a7_score      -0.474     0.220    -2.15  0.0312  
 9 a8_score       0.377     0.229     1.65  0.0988  
10 a9_score       0.690     0.260     2.65  0.00797 
# ℹ 95 more rows
…
Warning: package 'glmnet' was built under R version 4.4.2

SHOW ME THE CODE!

# Collect and print metrics from tuning
autism_en_tune %>% collect_metrics()

# A tibble: 60 × 8
        penalty mixture .metric     .estimator  mean     n std_err .config      
          <dbl>   <dbl> <chr>       <chr>      <dbl> <int>   <dbl> <chr>        
 1 0.0000000700  0.0751 accuracy    binary     0.696    50 0.00701 Preprocessor…
 2 0.0000000700  0.0751 brier_class binary     0.218    50 0.00476 Preprocessor…
 3 0.0000000700  0.0751 kap         binary     0.153    50 0.0127  Preprocessor…
 4 0.0000000700  0.0751 roc_auc     binary     0.613    50 0.0122  Preprocessor…
 5 0.0000000700  0.0751 sens        binary     0.722    50 0.00808 Preprocessor…
 6 0.0000000700  0.0751 spec        binary     0.521    50 0.0208  Preprocessor…
 7 0.00205       0.224  accuracy    binary     0.700    50 0.00739 Preprocessor…
 8 0.00205       0.224  brier_class binary     0.208    50 0.00450 Preprocessor…
 9 0.00205       0.224  kap         binary     0.165    50 0.0126  Preprocessor…
10 0.00205       0.224  roc_auc     binary     0.642    50 0.0120  Preprocessor…
# ℹ 50 more rows
…
SHOW ME THE CODE!

# Fit the finalized workflow to the full data
autism_en_final_fit <- autism_en_wflow2 %>%
  fit(data = autism)

# Collect and tidy the coefficients
autism_en_params <- autism_en_final_fit %>%
  extract_fit_parsnip() %>%
  tidy()

# Print the coefficients
autism_en_params

# A tibble: 105 × 3
   term        estimate penalty
   <chr>          <dbl>   <dbl>
 1 (Intercept)   -1.30   0.0387
 2 a1_score       0.267  0.0387
 3 a2_score       0      0.0387
 4 a3_score       0      0.0387
 5 a4_score       0.658  0.0387
 6 a5_score       0      0.0387
 7 a6_score       0      0.0387
 8 a7_score      -0.156  0.0387
 9 a8_score       0      0.0387
10 a9_score       0.102  0.0387
# ℹ 95 more rows

SHOW ME THE CODE!

library(dplyr)

# Filter out predictors with zero coefficients
autism_en_params_nonzero <- autism_en_params %>%
  filter(estimate != 0)

# Print the filtered results
autism_en_params_nonzero

# A tibble: 24 × 3
   term                              estimate penalty
   <chr>                                <dbl>   <dbl>
 1 (Intercept)                      -1.30      0.0387
 2 a1_score                          0.267     0.0387
 3 a4_score                          0.658     0.0387
 4 a7_score                         -0.156     0.0387
 5 a9_score                          0.102     0.0387
 6 a10_score                         0.0262    0.0387
 7 age                               0.0273    0.0387
 8 ethnicityHispanic_x_result       -0.0498    0.0387
 9 ethnicityOthers_x_result         -0.000175  0.0387
10 ethnicityWhite-European_x_result  0.0146    0.0387
# ℹ 14 more rows
…
# Tune the model with resampling
set.seed(123)
autism_en_tune <- tune_grid(
  autism_en_wflow3,
  resamples = autism_kfolds,
  grid = glh_en,
  metrics = metric_set(accuracy, roc_auc, kap, sens, spec, brier_class)
)

# Collect and print metrics from tuning
autism_en_tune %>% collect_metrics()

# A tibble: 60 × 8
        penalty mixture .metric     .estimator  mean     n std_err .config      
          <dbl>   <dbl> <chr>       <chr>      <dbl> <int>   <dbl> <chr>        
 1 0.0000000700  0.0751 accuracy    binary     0.682    50 0.00840 Preprocessor…
 2 0.0000000700  0.0751 brier_class binary     0.222    50 0.00517 Preprocessor…
 3 0.0000000700  0.0751 kap         binary     0.149    50 0.0142  Preprocessor…
 4 0.0000000700  0.0751 roc_auc     binary     0.616    50 0.0142  Preprocessor…
 5 0.0000000700  0.0751 sens        binary     0.703    50 0.00936 Preprocessor…
 6 0.0000000700  0.0751 spec        binary     0.539    50 0.0216  Preprocessor…
 7 0.00205       0.224  accuracy    binary     0.686    50 0.00815 Preprocessor…
 8 0.00205       0.224  brier_class binary     0.214    50 0.00490 Preprocessor…
 9 0.00205       0.224  kap         binary     0.156    50 0.0141  Preprocessor…
10 0.00205       0.224  roc_auc     binary     0.638    50 0.0135  Preprocessor…
# ℹ 50 more rows
…
SHOW ME THE CODE!

# Fit the finalized workflow to the full data
autism_en_final_fit3 <- autism_en_wflow4 %>%
  fit(data = autism)

# Collect and tidy the coefficients
autism_en_params3 <- autism_en_final_fit3 %>%
  extract_fit_parsnip() %>%
  tidy()

# Print the coefficients
autism_en_params3

# A tibble: 94 × 3
   term        estimate penalty
   <chr>          <dbl>   <dbl>
 1 (Intercept)  -1.44    0.0387
 2 a1_score      0.192   0.0387
 3 a2_score      0       0.0387
 4 a3_score      0       0.0387
 5 a4_score      0.611   0.0387
 6 a5_score      0       0.0387
 7 a6_score      0       0.0387
 8 a7_score     -0.0219  0.0387
 9 a8_score      0       0.0387
10 a9_score      0.233   0.0387
# ℹ 84 more rows

SHOW ME THE CODE!

library(dplyr)

# Filter out predictors with zero coefficients
autism_en_params_nonzero3 <- autism_en_params3 %>%
  filter(estimate != 0)

# Print the filtered results
autism_en_params_nonzero3

# A tibble: 23 × 3
   term                     estimate penalty
   <chr>                       <dbl>   <dbl>
 1 (Intercept)               -1.44    0.0387
 2 a1_score                   0.192   0.0387
 3 a4_score                   0.611   0.0387
 4 a7_score                  -0.0219  0.0387
 5 a9_score                   0.233   0.0387
 6 a10_score                  0.259   0.0387
 7 age                        0.0237  0.0387
 8 gender_m                  -0.106   0.0387
 9 ethnicity_Latino           0.0824  0.0387
10 ethnicity_White.European   0.0622  0.0387
# ℹ 13 more rows
…
Number of negative predictors: 66 

SHOW ME THE CODE!

# List predictors
cat("Positive predictors:\n")

Positive predictors:

SHOW ME THE CODE!

print(positive_predictorsa)

# A tibble: 27 × 5
   term                      estimate std.error statistic p.value
   <chr>                        <dbl>     <dbl>     <dbl>   <dbl>
 1 country_of_res_Sweden       19.3    4379.      0.00442  0.996 
 2 country_of_res_Uruguay      17.8    6523.      0.00273  0.998 
 3 country_of_res_Costa.Rica   16.0    6523.      0.00246  0.998 
 4 ethnicity_Pasifika           1.96      1.16    1.69     0.0918
 5 country_of_res_Bahamas       1.53      1.78    0.855    0.392 
 6 ethnicity_Latino             1.32      1.30    1.02     0.310 
 7 country_of_res_Belgium       0.951     1.77    0.537    0.591 
 8 ethnicity_Turkish            0.903     1.52    0.595    0.552 
 9 country_of_res_Brazil        0.887     1.38    0.642    0.521 
10 jaundice_yes                 0.884     0.375   2.36     0.0185
# ℹ 17 more rows

SHOW ME THE CODE!

cat("\nNegative predictors:\n")

Negative predictors:

SHOW ME THE CODE!

print(negative_predictorsa)

# A tibble: 66 × 5
   term                          estimate std.error statistic p.value
   <chr>                            <dbl>     <dbl>     <dbl>   <dbl>
 1 country_of_res_Finland           -18.9     6523.  -0.00289   0.998
 2 country_of_res_Chile             -18.8     6523.  -0.00288   0.998
 3 country_of_res_Tonga             -18.6     6523.  -0.00286   0.998
 4 country_of_res_Bolivia           -18.5     6523.  -0.00283   0.998
 5 country_of_res_Angola            -18.5     6523.  -0.00283   0.998
 6 country_of_res_Cyprus            -18.3     6523.  -0.00281   0.998
 7 country_of_res_Pakistan          -18.3     3525.  -0.00518   0.996
 8 country_of_res_Oman              -18.3     6523.  -0.00280   0.998
 9 country_of_res_Czech.Republic    -18.3     6523.  -0.00280   0.998
10 country_of_res_China             -18.2     6523.  -0.00279   0.998
# ℹ 56 more rows
…
Number of negative predictors: 69 

SHOW ME THE CODE!

# List predictors
cat("Positive predictors:\n")

Positive predictors:

SHOW ME THE CODE!

print(positive_predictorsb)

# A tibble: 34 × 5
   term                      estimate std.error statistic p.value
   <chr>                        <dbl>     <dbl>     <dbl>   <dbl>
 1 country_of_res_Turkey        34.7    7843.     0.00443 0.996  
 2 ethnicity_Hispanic           32.9    1454.     0.0226  0.982  
 3 country_of_res_Sweden        17.3    1434.     0.0121  0.990  
 4 country_of_res_Armenia       16.2    1872.     0.00863 0.993  
 5 country_of_res_Uruguay       15.9    2917.     0.00545 0.996  
 6 country_of_res_Costa.Rica    12.8    2063.     0.00618 0.995  
 7 ethnicityTurkish_x_result     9.89    864.     0.0115  0.991  
 8 ethnicity_Latino              5.86      2.68   2.18    0.0290 
 9 ethnicity_Pasifika            4.06      1.37   2.96    0.00306
10 relation_Parent               1.82      1.47   1.24    0.215  
# ℹ 24 more rows

SHOW ME THE CODE!

cat("\nNegative predictors:\n")

Negative predictors:

SHOW ME THE CODE!

print(negative_predictorsb)

# A tibble: 69 × 5
   term                        estimate std.error statistic p.value
   <chr>                          <dbl>     <dbl>     <dbl>   <dbl>
 1 ethnicity_Turkish              -72.6     5918.  -0.0123    0.990
 2 country_of_res_Chile           -23.2     6523.  -0.00356   0.997
 3 country_of_res_Bolivia         -22.0     6523.  -0.00337   0.997
 4 country_of_res_China           -21.7     6523.  -0.00332   0.997
 5 country_of_res_Ecuador         -21.2     6523.  -0.00324   0.997
 6 country_of_res_Oman            -21.1     6523.  -0.00324   0.997
 7 country_of_res_Angola          -21.0     6523.  -0.00321   0.997
 8 country_of_res_Sierra.Leone    -20.8     6523.  -0.00319   0.997
 9 country_of_res_Finland         -20.7     6523.  -0.00317   0.997
10 country_of_res_Tonga           -20.3     6523.  -0.00311   0.998
# ℹ 59 more rows
…
